%YAML 1.1
%TAG !u! tag:unity3d.com,2011:
--- !u!221 &22100000
AnimatorOverrideController:
  m_ObjectHideFlags: 0
  m_PrefabParentObject: {fileID: 0}
  m_PrefabInternal: {fileID: 0}
  m_Name: CatEyesMoneyOverride
  m_Controller: {fileID: 9100000, guid: 65420ff79511d0b47ba711d1b019cebd, type: 2}
  m_Clips:
  - m_OriginalClip: {fileID: 7400000, guid: c0ccc7ca7b11bb64fadd487081a380ea, type: 3}
    m_OverrideClip: {fileID: 7400000, guid: 7257dda7eedc6374bae1b388250a55b9, type: 3}
  - m_OriginalClip: {fileID: 7400000, guid: 138f4ab9662ed0f4a9f3d5f4dccd681d, type: 2}
    m_OverrideClip: {fileID: 7400000, guid: 138f4ab9662ed0f4a9f3d5f4dccd681d, type: 2}
