%YAML 1.1
%TAG !u! tag:unity3d.com,2011:
--- !u!221 &22100000
AnimatorOverrideController:
  m_ObjectHideFlags: 0
  m_PrefabParentObject: {fileID: 0}
  m_PrefabInternal: {fileID: 0}
  m_Name: CatEyesSharyOverride
  m_Controller: {fileID: 9100000, guid: 65420ff79511d0b47ba711d1b019cebd, type: 2}
  m_Clips:
  - m_OriginalClip: {fileID: 7400000, guid: c0ccc7ca7b11bb64fadd487081a380ea, type: 3}
    m_OverrideClip: {fileID: 7400000, guid: 702b87be77fb04840baaa62a1994c038, type: 3}
  - m_OriginalClip: {fileID: 7400000, guid: cf8cf652d897a3842970bae1b5cb2d35, type: 3}
    m_OverrideClip: {fileID: 7400000, guid: cf8cf652d897a3842970bae1b5cb2d35, type: 3}
  - m_OriginalClip: {fileID: 7400000, guid: dc5bba6d9b686c446a2477c1ace24960, type: 3}
    m_OverrideClip: {fileID: 7400000, guid: dc5bba6d9b686c446a2477c1ace24960, type: 3}
  - m_OriginalClip: {fileID: 7400000, guid: 73bb7e73f4e88d14fbf80689a0404725, type: 3}
    m_OverrideClip: {fileID: 7400000, guid: 73bb7e73f4e88d14fbf80689a0404725, type: 3}
  - m_OriginalClip: {fileID: 7400000, guid: 57d7a81ee6e24eb478fbc564a0dbfe17, type: 3}
    m_OverrideClip: {fileID: 7400000, guid: 57d7a81ee6e24eb478fbc564a0dbfe17, type: 3}
  - m_OriginalClip: {fileID: 7400000, guid: 84f7093cf5c122a4f9c1ab72442d7546, type: 3}
    m_OverrideClip: {fileID: 7400000, guid: 84f7093cf5c122a4f9c1ab72442d7546, type: 3}
  - m_OriginalClip: {fileID: 7400000, guid: 9c4f74316d41b7c49bbde8ebf89d2774, type: 3}
    m_OverrideClip: {fileID: 7400000, guid: 9c4f74316d41b7c49bbde8ebf89d2774, type: 3}
  - m_OriginalClip: {fileID: 7400000, guid: 39038bc488e349a49b5cea2f7afd5e10, type: 3}
    m_OverrideClip: {fileID: 7400000, guid: 39038bc488e349a49b5cea2f7afd5e10, type: 3}
  - m_OriginalClip: {fileID: 7400000, guid: dec88402a3b95e143b73a99894bb7ae3, type: 3}
    m_OverrideClip: {fileID: 7400000, guid: dec88402a3b95e143b73a99894bb7ae3, type: 3}
  - m_OriginalClip: {fileID: 7400000, guid: 747fa63c6ea96b4479d76d0175d23212, type: 3}
    m_OverrideClip: {fileID: 7400000, guid: 747fa63c6ea96b4479d76d0175d23212, type: 3}
