%YAML 1.1
%TAG !u! tag:unity3d.com,2011:
--- !u!74 &7400000
AnimationClip:
  m_ObjectHideFlags: 0
  m_PrefabParentObject: {fileID: 0}
  m_PrefabInternal: {fileID: 0}
  m_Name: Lezginka_sapka_02
  serializedVersion: 6
  m_Legacy: 0
  m_Compressed: 0
  m_UseHighQualityCurve: 1
  m_RotationCurves: []
  m_CompressedRotationCurves: []
  m_EulerCurves: []
  m_PositionCurves: []
  m_ScaleCurves:
  - curve:
      serializedVersion: 2
      m_Curve:
      - time: 0
        value: {x: 0.000020000001, y: 0.000020000001, z: 0.000020000001}
        inSlope: {x: 0.7002776, y: 0.7002776, z: 0.7002776}
        outSlope: {x: 0.7002776, y: 0.7002776, z: 0.7002776}
        tangentMode: 0
      - time: 0.04
        value: {x: 0.028031103, y: 0.028031103, z: 0.028031103}
        inSlope: {x: 1.3003197, y: 1.3003197, z: 1.3003197}
        outSlope: {x: 1.3003197, y: 1.3003197, z: 1.3003197}
        tangentMode: 0
      - time: 0.08
        value: {x: 0.10404557, y: 0.10404557, z: 0.10404557}
        inSlope: {x: 2.350204, y: 2.350204, z: 2.350204}
        outSlope: {x: 2.350204, y: 2.350204, z: 2.350204}
        tangentMode: 0
      - time: 0.28
        value: {x: 0.7839726, y: 0.7839726, z: 0.7839726}
        inSlope: {x: 3.099852, y: 3.099852, z: 3.099852}
        outSlope: {x: 3.099852, y: 3.099852, z: 3.099852}
        tangentMode: 0
      - time: 0.35999998
        value: {x: 0.9719889, y: 0.9719889, z: 0.9719889}
        inSlope: {x: 1.3003203, y: 1.3003203, z: 1.3003203}
        outSlope: {x: 1.3003203, y: 1.3003203, z: 1.3003203}
        tangentMode: 0
      - time: 0.48
        value: {x: 1, y: 1, z: 1}
        inSlope: {x: 0, y: 0, z: 0}
        outSlope: {x: 0, y: 0, z: 0}
        tangentMode: 0
      - time: 2.44
        value: {x: 1, y: 1, z: 1}
        inSlope: {x: 0, y: 0, z: 0}
        outSlope: {x: 0, y: 0, z: 0}
        tangentMode: 0
      - time: 4.4
        value: {x: 1, y: 1, z: 1}
        inSlope: {x: 0, y: 0, z: 0}
        outSlope: {x: 0, y: 0, z: 0}
        tangentMode: 0
      - time: 5.56
        value: {x: 1, y: 1, z: 1}
        inSlope: {x: 0, y: 0, z: 0}
        outSlope: {x: 0, y: 0, z: 0}
        tangentMode: 0
      - time: 5.64
        value: {x: 0.97198904, y: 0.97198904, z: 0.97198904}
        inSlope: {x: -1.3003168, y: -1.3003168, z: -1.3003168}
        outSlope: {x: -1.3003168, y: -1.3003168, z: -1.3003168}
        tangentMode: 0
      - time: 5.8799996
        value: {x: 0.2160486, y: 0.2160486, z: 0.2160486}
        inSlope: {x: -3.099855, y: -3.099855, z: -3.099855}
        outSlope: {x: -3.099855, y: -3.099855, z: -3.099855}
        tangentMode: 0
      - time: 5.92
        value: {x: 0.104045436, y: 0.104045436, z: 0.104045436}
        inSlope: {x: -2.3502052, y: -2.3502052, z: -2.3502052}
        outSlope: {x: -2.3502052, y: -2.3502052, z: -2.3502052}
        tangentMode: 0
      - time: 5.96
        value: {x: 0.028031025, y: 0.028031025, z: 0.028031025}
        inSlope: {x: -1.3003192, y: -1.3003192, z: -1.3003192}
        outSlope: {x: -1.3003192, y: -1.3003192, z: -1.3003192}
        tangentMode: 0
      - time: 6
        value: {x: 0.000020000001, y: 0.000020000001, z: 0.000020000001}
        inSlope: {x: -0.7002763, y: -0.7002763, z: -0.7002763}
        outSlope: {x: -0.7002763, y: -0.7002763, z: -0.7002763}
        tangentMode: 0
      m_PreInfinity: 2
      m_PostInfinity: 2
      m_RotationOrder: 4
    path: 
  m_FloatCurves: []
  m_PPtrCurves: []
  m_SampleRate: 25
  m_WrapMode: 0
  m_Bounds:
    m_Center: {x: 0, y: 0, z: 0}
    m_Extent: {x: 0, y: 0, z: 0}
  m_ClipBindingConstant:
    genericBindings:
    - path: 0
      attribute: 3
      script: {fileID: 0}
      classID: 4
      customType: 0
      isPPtrCurve: 0
    pptrCurveMapping: []
  m_AnimationClipSettings:
    serializedVersion: 2
    m_AdditiveReferencePoseClip: {fileID: 0}
    m_AdditiveReferencePoseTime: 0
    m_StartTime: 0
    m_StopTime: 6
    m_OrientationOffsetY: 0
    m_Level: 0
    m_CycleOffset: 0
    m_HasAdditiveReferencePose: 0
    m_LoopTime: 0
    m_LoopBlend: 0
    m_LoopBlendOrientation: 0
    m_LoopBlendPositionY: 0
    m_LoopBlendPositionXZ: 0
    m_KeepOriginalOrientation: 0
    m_KeepOriginalPositionY: 1
    m_KeepOriginalPositionXZ: 0
    m_HeightFromFeet: 0
    m_Mirror: 0
  m_EditorCurves:
  - curve:
      serializedVersion: 2
      m_Curve:
      - time: 0
        value: 0.000020000001
        inSlope: 0.7002776
        outSlope: 0.7002776
        tangentMode: 0
      - time: 0.04
        value: 0.028031103
        inSlope: 1.3003197
        outSlope: 1.3003197
        tangentMode: 0
      - time: 0.08
        value: 0.10404557
        inSlope: 2.350204
        outSlope: 2.350204
        tangentMode: 0
      - time: 0.28
        value: 0.7839726
        inSlope: 3.099852
        outSlope: 3.099852
        tangentMode: 0
      - time: 0.35999998
        value: 0.9719889
        inSlope: 1.3003203
        outSlope: 1.3003203
        tangentMode: 0
      - time: 0.48
        value: 1
        inSlope: 0
        outSlope: 0
        tangentMode: 0
      - time: 2.44
        value: 1
        inSlope: 0
        outSlope: 0
        tangentMode: 0
      - time: 4.4
        value: 1
        inSlope: 0
        outSlope: 0
        tangentMode: 0
      - time: 5.56
        value: 1
        inSlope: 0
        outSlope: 0
        tangentMode: 0
      - time: 5.64
        value: 0.97198904
        inSlope: -1.3003168
        outSlope: -1.3003168
        tangentMode: 0
      - time: 5.8799996
        value: 0.2160486
        inSlope: -3.099855
        outSlope: -3.099855
        tangentMode: 0
      - time: 5.92
        value: 0.104045436
        inSlope: -2.3502052
        outSlope: -2.3502052
        tangentMode: 0
      - time: 5.96
        value: 0.028031025
        inSlope: -1.3003192
        outSlope: -1.3003192
        tangentMode: 0
      - time: 6
        value: 0.000020000001
        inSlope: -0.7002763
        outSlope: -0.7002763
        tangentMode: 0
      m_PreInfinity: 2
      m_PostInfinity: 2
      m_RotationOrder: 4
    attribute: m_LocalScale.x
    path: 
    classID: 4
    script: {fileID: 0}
  - curve:
      serializedVersion: 2
      m_Curve:
      - time: 0
        value: 0.000020000001
        inSlope: 0.7002776
        outSlope: 0.7002776
        tangentMode: 0
      - time: 0.04
        value: 0.028031103
        inSlope: 1.3003197
        outSlope: 1.3003197
        tangentMode: 0
      - time: 0.08
        value: 0.10404557
        inSlope: 2.350204
        outSlope: 2.350204
        tangentMode: 0
      - time: 0.28
        value: 0.7839726
        inSlope: 3.099852
        outSlope: 3.099852
        tangentMode: 0
      - time: 0.35999998
        value: 0.9719889
        inSlope: 1.3003203
        outSlope: 1.3003203
        tangentMode: 0
      - time: 0.48
        value: 1
        inSlope: 0
        outSlope: 0
        tangentMode: 0
      - time: 2.44
        value: 1
        inSlope: 0
        outSlope: 0
        tangentMode: 0
      - time: 4.4
        value: 1
        inSlope: 0
        outSlope: 0
        tangentMode: 0
      - time: 5.56
        value: 1
        inSlope: 0
        outSlope: 0
        tangentMode: 0
      - time: 5.64
        value: 0.97198904
        inSlope: -1.3003168
        outSlope: -1.3003168
        tangentMode: 0
      - time: 5.8799996
        value: 0.2160486
        inSlope: -3.099855
        outSlope: -3.099855
        tangentMode: 0
      - time: 5.92
        value: 0.104045436
        inSlope: -2.3502052
        outSlope: -2.3502052
        tangentMode: 0
      - time: 5.96
        value: 0.028031025
        inSlope: -1.3003192
        outSlope: -1.3003192
        tangentMode: 0
      - time: 6
        value: 0.000020000001
        inSlope: -0.7002763
        outSlope: -0.7002763
        tangentMode: 0
      m_PreInfinity: 2
      m_PostInfinity: 2
      m_RotationOrder: 4
    attribute: m_LocalScale.y
    path: 
    classID: 4
    script: {fileID: 0}
  - curve:
      serializedVersion: 2
      m_Curve:
      - time: 0
        value: 0.000020000001
        inSlope: 0.7002776
        outSlope: 0.7002776
        tangentMode: 0
      - time: 0.04
        value: 0.028031103
        inSlope: 1.3003197
        outSlope: 1.3003197
        tangentMode: 0
      - time: 0.08
        value: 0.10404557
        inSlope: 2.350204
        outSlope: 2.350204
        tangentMode: 0
      - time: 0.28
        value: 0.7839726
        inSlope: 3.099852
        outSlope: 3.099852
        tangentMode: 0
      - time: 0.35999998
        value: 0.9719889
        inSlope: 1.3003203
        outSlope: 1.3003203
        tangentMode: 0
      - time: 0.48
        value: 1
        inSlope: 0
        outSlope: 0
        tangentMode: 0
      - time: 2.44
        value: 1
        inSlope: 0
        outSlope: 0
        tangentMode: 0
      - time: 4.4
        value: 1
        inSlope: 0
        outSlope: 0
        tangentMode: 0
      - time: 5.56
        value: 1
        inSlope: 0
        outSlope: 0
        tangentMode: 0
      - time: 5.64
        value: 0.97198904
        inSlope: -1.3003168
        outSlope: -1.3003168
        tangentMode: 0
      - time: 5.8799996
        value: 0.2160486
        inSlope: -3.099855
        outSlope: -3.099855
        tangentMode: 0
      - time: 5.92
        value: 0.104045436
        inSlope: -2.3502052
        outSlope: -2.3502052
        tangentMode: 0
      - time: 5.96
        value: 0.028031025
        inSlope: -1.3003192
        outSlope: -1.3003192
        tangentMode: 0
      - time: 6
        value: 0.000020000001
        inSlope: -0.7002763
        outSlope: -0.7002763
        tangentMode: 0
      m_PreInfinity: 2
      m_PostInfinity: 2
      m_RotationOrder: 4
    attribute: m_LocalScale.z
    path: 
    classID: 4
    script: {fileID: 0}
  m_EulerEditorCurves: []
  m_HasGenericRootTransform: 0
  m_HasMotionFloatCurves: 0
  m_GenerateMotionCurves: 0
  m_Events: []
